^C:\USERS\HOVIG\SOURCE\REPOS\SFMLPROJECT\BOXBASIC\MAIN.CPP
C:\USERS\HOVIG\SOURCE\REPOS\SFMLPROJECT\BOXBASIC\DEBUG\VC141.PDB
C:\USERS\HOVIG\SOURCE\REPOS\SFMLPROJECT\BOXBASIC\DEBUG\VC141.IDB
C:\USERS\HOVIG\SOURCE\REPOS\SFMLPROJECT\BOXBASIC\DEBUG\MAIN.OBJ
